﻿{
  "Settings": {
    "CycleSeconds": 50,
    "WorkflowAPI_URL": "http://localhost:8083",
    "WorkflowAPI_User": "Admin",
    "WorkflowAPI_Password": "",
    "ADWorkflowOrgUnits": "OU=WorkflowUser,OU=TrumbullAD,DC=ad,DC=caso,DC=com",
    "ADWorkflowDisabledOrgUnit": "",
    "ADDomainName": "ad.caso.com",
    "Debug_Mode": true,
    "Debug_Dryrun": false
  },
  "Groups": {
    "Admin_GroupName": "WF-SysAdm",
    "Designer_GroupName": "WF-WkflDesigner",
    "UserManager_GroupName": "WF-UserMgr",
    "WorkflowUsers_GroupName": "WF-AllWfUsers",
    "WorkflowUsersDisabled_GroupName": ""
  }
}